module gitlab.com/lgcavalheiro/libre-scales

go 1.21

toolchain go1.22.0

require (
	github.com/stretchr/testify v1.8.4
	github.com/wailsapp/wails/v2 v2.7.1
	golang.org/x/exp v0.0.0-20230522175609-2e198f4a06a1
)

require (
	github.com/bep/debounce v1.2.1 // indirect
	github.com/davecgh/go-spew v1.1.1 // indirect
	github.com/go-ole/go-ole v1.2.6 // indirect
	github.com/godbus/dbus/v5 v5.1.0 // indirect
	github.com/google/uuid v1.3.0 // indirect
	github.com/jchv/go-winloader v0.0.0-20210711035445-715c2860da7e // indirect
	github.com/labstack/echo/v4 v4.10.2 // indirect
	github.com/labstack/gommon v0.4.0 // indirect
	github.com/leaanthony/go-ansi-parser v1.6.0 // indirect
	github.com/leaanthony/gosod v1.0.3 // indirect
	github.com/leaanthony/slicer v1.6.0 // indirect
	github.com/leaanthony/u v1.1.0 // indirect
	github.com/mattn/go-colorable v0.1.13 // indirect
	github.com/mattn/go-isatty v0.0.19 // indirect
	github.com/pkg/browser v0.0.0-20210911075715-681adbf594b8 // indirect
	github.com/pkg/errors v0.9.1 // indirect
	github.com/pmezard/go-difflib v1.0.0 // indirect
	github.com/rivo/uniseg v0.4.4 // indirect
	github.com/samber/lo v1.38.1 // indirect
	github.com/tkrajina/go-reflector v0.5.6 // indirect
	github.com/valyala/bytebufferpool v1.0.0 // indirect
	github.com/valyala/fasttemplate v1.2.2 // indirect
	github.com/wailsapp/go-webview2 v1.0.10 // indirect
	github.com/wailsapp/mimetype v1.4.1 // indirect
	golang.org/x/crypto v0.14.0 // indirect
	golang.org/x/net v0.17.0 // indirect
	golang.org/x/sys v0.13.0 // indirect
	golang.org/x/text v0.13.0 // indirect
	gopkg.in/yaml.v3 v3.0.1 // indirect
)

// replace github.com/wailsapp/wails/v2 v2.5.1 => /home/red-menace/go/pkg/mod
