{
  "$schema": "https://wails.io/schemas/config.v2.json",
  "name": "libre-scales",
  "outputfilename": "libre-scales",
  "frontend:install": "npm install",
  "frontend:build": "npm run build",
  "frontend:dev:watcher": "npm run dev",
  "frontend:dev:serverUrl": "auto",
  "author": {
    "name": "lg.cavalheiro",
    "email": "lg.cavalheiro@hotmail.com"
  }
}
